

[np.array([ -0.15858311,  -0.13681629,   0.01902911,  -0.21073472,0.04585525,  17.24125472]), 
np.array([  0.15858311,   0.13681629,   0.01902911,   0.21073472, 0.04585525,  17.24125472]), 
np.array([  0.15858311,   0.13681629,   0.01902911,   0.21073472, 0.04585525,  17.24125472]), 
np.array([ -0.15858311,  -0.13681629,   0.01902911,  -0.21073472,0.04585525,  17.24125472]), 
np.array([ -6.27974006e-12,  -5.99324532e-12,  -1.90120759e-13, -1.07464041e-11,  -3.75270924e-12,   1.65663224e+01])]


[
[-0.12640434169735798, -0.1097034753498615, 0.012161637559762363, -0.16822848367751508, 0.028875385571213254, 17.046452678762449], 
[-1.3299292335407082e-13, -1.591495349715802e-13, -4.1243397725041146e-19, -3.0148534460275748e-13, 1.122299820597141e-17, 16.720898241959198], 


[0.12640434169737244, 0.10970347534987382, 0.012161637559762302, 0.1682284836775359, 0.028875385571210596, 17.046452678762293], 
[0.12640434169735809, 0.10970347534986169, 0.012161637559762401, 0.16822848367751544, 0.028875385571213403, 17.046452678762442]



Solutions for m = 3.1199999999999974:
[0.31334532,   0.2607122 ,   0.07252826,   0.41626543,0.20134099,  21.73779466], 
[0.61964845,  0.44773445,  0.27743796,  0.45565384,  0.705863  , 0.00108318], 
[0.80915516,  0.48899467,  0.39567256,  0.39726196,  0.80361642,0.00107979]

[-0.31334532,  -0.2607122 ,   0.07252826,  -0.41626543,0.20134099,21.73779466], 
[-0.61964845, -0.44773445,  0.27743796, -0.45565384,  0.705863  ,0.00108318], 
[-0.80915516, -0.48899467,  0.39567256, -0.39726196,  0.80361642,0.00107979], 

[-7.18439718e-18,-7.46936390e-18,1.64066622e-20,-2.29339609e-17,-6.22209393e-19,1.08816697e-03], 


Solutions for m = 3.1699999999999964:
[array([  0.32616414,   0.27092637,   0.07880273,   0.4350678 ,
         0.22434352,  23.25931936]), array([ 0.88828054,  0.49651175,  0.44104173,  0.37439028,  0.83140899,
        0.00104475]), array([ 0.54498279,  0.42018517,  0.22899369,  0.47700249,  0.64989537,
        0.00104596]), array([ -1.82058244e-15,  -1.88642033e-15,  -1.03409136e-16,
        -5.77392619e-15,  -8.91411313e-16,   6.95216633e-04]), array([ -0.32616414,  -0.27092637,   0.07880273,  -0.4350678 ,
         0.22434352,  23.25931936]), array([-0.88828054, -0.49651175,  0.44104173, -0.37439028,  0.83140899,
        0.00104475]), array([-0.54498279, -0.42018517,  0.22899369, -0.47700249,  0.64989537,
        0.00104596])]


Solutions for m = 3.189999999999996:
[
array([  0.33085465,   0.27472203,   0.08122111,   0.44218075,
         0.23367792,  24.01180286]), 
array([-0.52293231, -0.41063956,  0.21473669, -0.48256769,  0.6308756 ,
        0.00104146]), 
array([-0.91183656, -0.49787796,  0.45398333, -0.36788151,  0.83861954,
        0.00104262]), 
array([ -0.33085465,  -0.27472203,   0.08122111,  -0.44218075,
         0.23367792,  24.01180286]), 
array([ 0.52293231,  0.41063956,  0.21473669,  0.48256769,  0.6308756 ,
        0.00104146]), 
array([ 0.91183656,  0.49787796,  0.45398333,  0.36788151,  0.83861954,
        0.00104262])]

array([  3.09810530e-11,   3.25104241e-11,  -1.51460415e-13,
         1.04685133e-10,  -8.02307275e-13,   1.04241035e-03]), 
         
array([ -3.09810530e-11,  -3.25104241e-11,  -1.51460415e-13,
        -1.04685133e-10,  -8.02307275e-13,   1.04241035e-03]), 

array([ -1.82058244e-15,  -1.88642033e-15,  -1.03409136e-16,
        -5.77392619e-15,  -8.91411313e-16,   6.95216633e-04]), 


Solutions for m = 3.229999999999995:
array([  0.33963562,   0.28194176,   0.08595698,   0.45583129,
         0.252736  ,  25.8732454 ]), 

array([ -0.33963562,  -0.28194176,   0.08595698,  -0.45583129,
         0.252736  ,  25.8732454 ]),

array([ 0.48448197,  0.39238117,  0.1901016 ,  0.49095922,  0.59465223,
        0.00091515]), 

array([-0.48448197, -0.39238117,  0.1901016 , -0.49095922,  0.59465223,
        0.00091515]), 

array([  4.84481973e-01,   3.92381173e-01,   1.90101605e-01,
         4.90959220e-01,   5.94652229e-01,   1.76297512e-04]), 

array([ -4.84481973e-01,  -3.92381173e-01,   1.90101605e-01,
        -4.90959220e-01,   5.94652229e-01,   1.76297512e-04]), 


array([ -9.52742593e-01,  -4.99414677e-01,   4.75813635e-01,
        -3.56926527e-01,   8.50147761e-01,   1.76233991e-04]),
 
array([  9.52742593e-01,   4.99414677e-01,   4.75813635e-01,
         3.56926527e-01,   8.50147761e-01,   1.76233991e-04]), 

array([ -3.09810530e-11,  -3.25104241e-11,  -1.51460415e-13,
        -1.04685133e-10,  -8.02307275e-13,   1.04241035e-03])

array([ -1.82058244e-15,  -1.88642033e-15,  -1.03409136e-16,
        -5.77392619e-15,  -8.91411313e-16,   6.95216633e-04]), 



Solutions for m = 3.2499999999999947:
[array([  0.34382336,   0.28543794,   0.08831634,   0.46243207,
         0.26256372,  27.04769107]), array([  9.71050340e-01,   4.99784326e-01,   4.85315740e-01,
         3.52168361e-01,   8.54933016e-01,   1.76239347e-04]), array([ -9.71050340e-01,  -4.99784326e-01,   4.85315740e-01,
        -3.52168361e-01,   8.54933016e-01,   1.71761225e-04]), array([  4.67087971e-01,   3.83433775e-01,   1.79097304e-01,
         4.94049261e-01,   5.76911167e-01,   1.71766777e-04]), array([ -1.52838242e-15,  -1.57328816e-15,  -1.68584778e-16,
        -4.53121139e-15,  -1.30921073e-15,   1.71762250e-04]), array([ -0.34382336,  -0.28543794,   0.08831634,  -0.46243207,
         0.26256372,  27.04769107]), array([ -9.71050340e-01,  -4.99784326e-01,   4.85315740e-01,
        -3.52168361e-01,   8.54933016e-01,   1.76239347e-04]), array([  9.71050340e-01,   4.99784326e-01,   4.85315740e-01,
         3.52168361e-01,   8.54933016e-01,   1.71761225e-04]), array([ -4.67087971e-01,  -3.83433775e-01,   1.79097304e-01,
        -4.94049261e-01,   5.76911167e-01,   1.71766777e-04]), array([ -3.09810530e-11,  -3.25104241e-11,  -1.51460415e-13,
        -1.04685133e-10,  -8.02307275e-13,   1.04241035e-03])]


Solutions for m = 3.2599999999999945:
[array([  0.34590027,   0.28718104,   0.08950907,   0.46569565,
         0.26758738,  27.71700123]), array([ -4.58711179e-01,  -3.78969874e-01,   1.73837718e-01,
        -4.95347119e-01,   5.68053153e-01,   1.71657739e-04]), array([  9.79795897e-01,   4.99895866e-01,   4.89795918e-01,
         3.49927106e-01,   8.57142857e-01,   1.69119395e-04]), array([  2.09138483e-18,   2.16069120e-18,  -4.01672210e-19,
         6.46444957e-18,  -2.97441865e-18,   1.71741368e-04]), array([ -0.34590027,  -0.28718104,   0.08950907,  -0.46569565,
         0.26758738,  27.71700123]), array([  4.58711179e-01,   3.78969874e-01,   1.73837718e-01,
         4.95347119e-01,   5.68053153e-01,   1.71657739e-04]), array([ -9.79795897e-01,  -4.99895866e-01,   4.89795918e-01,
        -3.49927106e-01,   8.57142857e-01,   1.69119395e-04]), array([ -3.09810530e-11,  -3.25104241e-11,  -1.51460415e-13,
        -1.04685133e-10,  -8.02307275e-13,   1.04241035e-03])]
m = 3.2699999999999942


Solutions for m = 3.2999999999999936:
[array([  0.3545197 ,   0.29439804,   0.09456418,   0.47872112,
         0.2888377 ,  31.18982077]), 
array([  1.01258253e+00,   4.99960915e-01,   5.06251690e-01,
         3.41706759e-01,   8.65015741e-01,   1.69016837e-04]), 
array([  9.58955881e-18,   9.87875853e-18,  -6.23403066e-19,
         2.93154695e-17,  -4.44833869e-18,   1.68033017e-04]), 
array([  4.26730352e-01,   3.60993814e-01,   1.54047018e-01,
         4.98955694e-01,   5.32298848e-01,   1.68993424e-04]),
array([ -0.3545197 ,  -0.29439804,   0.09456418,  -0.47872112,
         0.2888377 ,  31.18982077]), 
array([ -1.01258253e+00,  -4.99960915e-01,   5.06251690e-01,
        -3.41706759e-01,   8.65015741e-01,   1.69016837e-04]), 
array([ -4.26730352e-01,  -3.60993814e-01,   1.54047018e-01,
        -4.98955694e-01,   5.32298848e-01,   1.68993424e-04])]
