0.68,0.23018525910653309,0.28950086205430875,11.460000000000001,
0.679,0.23523286077261599,0.29816911808739927,11.347936846668393,
0.679,0.33333333332941195,0.34773960298197787,9.5988160680475385,
0.678,0.24140616435092632,0.30722758891919405,11.203206222712318,
0.678,0.33333333332532117,0.35017297618483317,9.6002134197648612,
0.677,0.24819140774422641,0.3163002624113449,11.063802738238596,
0.677,0.3333333333253416,0.35260634937557939,9.6014995833217487,
0.676,0.25577187702122944,0.32538992347870793,10.929384891234335,
0.676,0.33333333332529097,0.35503972256631544,9.6026829777594855,
0.675,0.26444332959646782,0.33449979202823205,10.799642345203775,
0.675,0.33333333332514781,0.35747309575704994,9.60377145887254,
0.674,0.27474397081447827,0.34363391334554705,10.67429225085845,
0.674,0.33333333332488901,0.35990646894779132,9.6047723518881583,
0.673,0.28788094677204951,0.35279809067782925,10.553076110246231,
0.673,0.33333333332447779,0.36233984213854609,9.6056924749220016,
0.672,0.30835990441494587,0.36200331732102708,10.435757041349683,
0.672,0.3333333333238635,0.36477321532932228,9.6065381625198416,
0.671,0.3333333357338743,0.36720658977156645,10.368492658877502,
0.671,0.3333333333229595,0.36720658852012533,9.6073152712860512,
0.67,0.33333333332163806,0.36963996171096514,9.608029182088762,
0.669,0.33333333331962195,0.37207333490185374,9.6086847413073215,
0.668,0.33333333331639514,0.37450670809281089,9.6092861442077044,
0.667,0.33333333331057086,0.37694008128388368,9.6098364592271945,
0.666,0.33333333329757248,0.3793734544752223,9.6103358138596473,
0.665,0.33333333324470948,0.38180682766788726,9.6107652548186504,
0.664,0.33333333350145966,0.38424020085055638,9.6113065321875997,
0.663,0.333333333375537,0.38667357404565911,9.611742805480457,
0.662,0.33333333335722293,0.38910694723731259,9.6121392722428727,
0.661,0.33333333334984555,0.3915403204286475,9.6125052142538507,
0.66,0.33333333334584458,0.39397369361990908,9.6128453543716841,
0.659,0.33333333334332299,0.3964070668111575,9.613163137283891,
0.658,0.333333333341573,0.39884044000241742,9.6134614355052967,
0.657,0.33333333334027254,0.40127381319369504,9.6137427897271746,
0.656,0.33333333333926374,0.40370718638499625,9.6140095381141819,
0.655,0.33333333333845028,0.40614055957632189,9.6142638796717268,
0.654,0.33333333333778414,0.40857393276767312,9.6145079597991234,
0.653,0.33333333333723419,0.41100730595905016,9.6147439697569403,
0.652,0.33333333333679482,0.4134406791504513,9.6149743185623198,
0.651,0.33333333333647319,0.41587405234187813,9.6152019890776401,
0.65,0.33333333334536858,0.41830742553246159,9.6155258592978754,
