3.1,0.30773718397193645,1
3.1,0.74373997000000003,0
3.1,-0.30773718397193645,1
3.1,-0.74373997000000003,0
3.1,-9.1877654151178198e-12,0
3.0900000000000003,0.30482375119357574,1
3.0900000000000003,-0.30482375119357574,1
3.0900000000000003,-8.7109316433703975e-12,0
3.0800000000000005,0.30183556529927397,1
3.0800000000000005,-0.30183556529927397,1
3.0800000000000005,-8.6608358056509216e-12,0
3.0700000000000007,0.29877128142243681,1
3.0700000000000007,-0.29877128142243681,1
3.0700000000000007,-9.9050456448849809e-12,0
3.060000000000001,0.29562955476886987,1
3.060000000000001,-0.29562955476886987,1
3.060000000000001,-1.096331815910904e-11,0
3.050000000000001,0.29240901882665904,1
3.050000000000001,-2.5779973951201132e-12,0
3.050000000000001,-0.29240901882665904,1
3.0400000000000014,-0.28910826416157032,1
3.0400000000000014,-5.2668554063196597e-12,0
3.0400000000000014,0.28910826416157032,1
3.0300000000000016,-0.28572581857394203,1
3.0300000000000016,-3.616201807964898e-12,0
3.0300000000000016,0.28572581857394203,1
3.020000000000002,-0.28226012727261401,1
3.020000000000002,-4.3710270206776672e-12,0
3.020000000000002,0.28226012727261401,1
3.010000000000002,-0.27870953325483566,1
3.010000000000002,-5.1042425004177217e-12,0
3.010000000000002,0.27870953325483566,1
3.000000000000002,-0.27507225687643438,1
3.000000000000002,-5.8161873828345703e-12,0
3.000000000000002,0.27507225687643438,1
2.9900000000000024,-0.27134637449850807,1
2.9900000000000024,-6.5071976670946048e-12,0
2.9900000000000024,0.27134637449850807,1
2.9800000000000026,-0.26752979562486917,1
2.9800000000000026,-7.1776062294650878e-12,0
2.9800000000000026,0.26752979562486917,1
2.970000000000003,-0.26362023803346696,1
2.970000000000003,-7.8277428368956282e-12,0
2.970000000000003,0.26362023803346696,1
2.960000000000003,-0.25961520032756874,1
2.960000000000003,-8.4579341606001988e-12,0
2.960000000000003,0.25961520032756874,1
2.9500000000000033,-0.2555119312458537,1
2.9500000000000033,-9.0685037896399439e-12,0
2.9500000000000033,0.2555119312458537,1
2.9400000000000035,0.25130739495250187,1
2.9400000000000035,-9.6597722445054219e-12,0
2.9400000000000035,-0.25130739495250187,1
2.9300000000000037,0.24699823138056981,1
2.9300000000000037,-1.023205699069696e-11,0
2.9300000000000037,-0.24699823138056981,1
2.920000000000004,0.24258071047210875,1
2.920000000000004,-1.0785672452309783e-11,0
2.920000000000004,-0.24258071047210875,1
2.910000000000004,0.23805067894150317,1
2.910000000000004,-1.1320930025614598e-11,0
2.910000000000004,-0.23805067894150317,1
2.9000000000000044,0.23340349777117975,1
2.9000000000000044,-1.1838138092639753e-11,0
2.9000000000000044,-0.23340349777117975,1
2.8900000000000046,0.2286339682316296,1
2.8900000000000046,-1.23376020347534e-11,0
2.8900000000000046,-0.2286339682316296,1
2.880000000000005,0.22373624356634578,1
2.880000000000005,-1.2819624246246649e-11,0
2.880000000000005,-0.22373624356634578,1
2.870000000000005,0.21870372264504867,1
2.870000000000005,-1.3284504147915261e-11,0
2.870000000000005,-0.21870372264504867,1
2.860000000000005,0.21352892073519247,1
2.860000000000005,-1.3732538200640906e-11,0
2.860000000000005,-0.21352892073519247,1
2.8500000000000054,0.20820331094847819,1
2.8500000000000054,-1.4164019918974945e-11,0
2.8500000000000054,-0.20820331094847819,1
2.8400000000000056,0.20271712768494221,1
2.8400000000000056,-1.4579239884720049e-11,0
2.8400000000000056,-0.20271712768494221,1
2.830000000000006,0.19705912021445987,1
2.830000000000006,-1.4978485760511872e-11,0
2.830000000000006,-0.19705912021445987,1
2.820000000000006,0.19121623992079245,1
2.820000000000006,-1.536204230340176e-11,0
2.820000000000006,-0.19121623992079245,1
2.8100000000000063,0.18517323791119755,1
2.8100000000000063,-1.5730191378438992e-11,0
2.8100000000000063,-0.18517323791119755,1
2.8000000000000065,0.17891213938620262,1
2.8000000000000065,-1.6083211972253322e-11,0
2.8000000000000065,-0.17891213938620262,1
2.7900000000000067,0.17241154520351556,1
2.7900000000000067,-1.6421380206635903e-11,0
2.7900000000000067,-0.17241154520351556,1
2.780000000000007,0.16564568566570842,1
2.780000000000007,-1.6744969352122981e-11,0
2.780000000000007,-0.16564568566570842,1
2.770000000000007,0.15858310983619717,1
2.770000000000007,-1.7054249841577861e-11,0
2.770000000000007,-0.15858310983619717,1
2.7600000000000073,0.15118482261381899,1
2.7600000000000073,-3.5509389838669715e-12,0
2.7600000000000073,-0.15118482261381899,1
2.7500000000000075,0.14340155562986889,1
2.7500000000000075,-3.5231265282109857e-12,0
2.7500000000000075,-0.14340155562986889,1
2.7400000000000078,0.13516962242679922,1
2.7400000000000078,-0.13516962230892038,1
2.7400000000000078,-3.4919763252951526e-12,0
2.7400000000000078,-0.13516962242679922,1
2.7400000000000078,0.13516962230892038,1
2.730000000000008,0.12640434169736622,1
2.730000000000008,-3.457724091818396e-12,0
2.730000000000008,-0.12640434169736622,1
2.720000000000008,-0.11698902066323758,1
2.720000000000008,-3.4205959544650404e-12,0
2.720000000000008,0.11698902066323758,1
2.7100000000000084,0.10675516976603246,1
2.7100000000000084,-3.380808733367602e-12,0
2.7100000000000084,-0.10675516976603246,1
2.7000000000000086,0.095443541613472863,1
2.7000000000000086,-3.3385702191679507e-12,0
2.7000000000000086,-0.095443541613472863,1
2.690000000000009,0.082616786899426489,1
2.690000000000009,-3.2940794438690598e-12,0
2.690000000000009,-0.082616786899426489,1
2.680000000000009,0.067420592018567607,1
2.680000000000009,-3.2475269455199933e-12,0
2.680000000000009,-0.067420592018567607,1
2.6700000000000093,0.047646006682816641,1
2.6700000000000093,-3.1990950268637986e-12,0
2.6700000000000093,-0.047646006682816641,1
2.6600000000000095,4.5848548563359414e-06,1
2.6600000000000095,-3.1489580080477856e-12,0
2.6600000000000095,-4.5848548563359414e-06,1
2.6500000000000097,4.9218858128935249e-10,0
2.6500000000000097,-3.0972824734977909e-12,0
2.6500000000000097,-4.9218858128935249e-10,0
2.64000000000001,4.9218858128935249e-10,0
2.64000000000001,-3.0442275130582674e-12,0
2.64000000000001,-4.9218858128935249e-10,0
2.63000000000001,4.9218858128935249e-10,0
2.63000000000001,-2.9899449574968895e-12,0
2.63000000000001,-4.9218858128935249e-10,0
2.6200000000000103,4.9218858128935249e-10,0
2.6200000000000103,-2.9345796084724842e-12,0
2.6200000000000103,-4.9218858128935249e-10,0
2.6100000000000105,4.9218858128935249e-10,0
2.6100000000000105,-2.8782694630634818e-12,0
2.6100000000000105,-4.9218858128935249e-10,0
2.6000000000000107,-2.8211459329527604e-12,0
2.590000000000011,-2.7633340583634342e-12,0
2.580000000000011,-2.7049527168398096e-12,0
2.5700000000000114,-2.6461148269648939e-12,0
2.5600000000000116,-2.5869275471062253e-12,0
2.550000000000012,-2.5274924692804742e-12,0
2.540000000000012,-2.4679058082283922e-12,0
2.5300000000000122,-2.4082585857654431e-12,0
2.5200000000000125,-2.3486368105528788e-12,0
2.5100000000000127,-2.2891216532965033e-12,0
2.500000000000013,-2.229789617516231e-12,0
2.490000000000013,-2.1707127059459585e-12,0
2.4800000000000133,-2.1119585826501365e-12,0
2.4700000000000135,-2.0535907309377742e-12,0
2.4600000000000137,-1.9956686071536996e-12,0
2.450000000000014,-1.9382477904263874e-12,0
2.440000000000014,-1.8813801284497809e-12,0
2.4300000000000144,-1.8251138793757962e-12,0
2.4200000000000146,-1.7694938498935301e-12,0
2.410000000000015,-1.7145615295696191e-12,0
2.400000000000015,-1.6603552215232158e-12,0
2.3900000000000152,-1.6069101695085731e-12,0
2.3800000000000154,-1.5542586814765842e-12,0
2.3700000000000156,-1.5024302496857487e-12,0
2.360000000000016,-1.4514516674325127e-12,0
2.350000000000016,-1.4013471424693096e-12,0
2.3400000000000163,-1.3521384071781108e-12,0
2.3300000000000165,-1.3038448255659517e-12,0
2.3200000000000167,-1.2564834971484183e-12,0
2.310000000000017,-1.2100693577857502e-12,0
2.300000000000017,-1.1646152775351313e-12,0
2.2900000000000174,-1.1201321555826258e-12,0
2.2800000000000176,-1.0766290123160653e-12,0
2.270000000000018,-1.0341130786005295e-12,0
2.260000000000018,-9.9258988231618577e-13,0
2.250000000000018,-9.5206333221781221e-13,0
2.2400000000000184,-9.1253579917458044e-13,0
2.2300000000000186,-8.7400819484724478e-13,0
2.220000000000019,-7.3602447245721562e-12,0
2.210000000000019,-6.9580318390725174e-12,0
2.2000000000000193,-6.5742590438328202e-12,0
2.1900000000000195,-6.2083126826924854e-12,0
2.1800000000000197,-5.8595847853996005e-12,0
2.17000000000002,-5.5274741758958003e-12,0
2.16000000000002,-5.211387470891075e-12,0
2.1500000000000203,-4.9107399753423111e-12,0
2.1400000000000206,-4.6249564811444189e-12,0
2.1300000000000208,-4.3534719750530017e-12,0
2.120000000000021,-4.095732261574471e-12,0
2.110000000000021,-3.8511945062899061e-12,0
2.1000000000000214,-3.6193277048173936e-12,0
2.0900000000000216,-3.3996130823678977e-12,0
2.080000000000022,-3.1915444286072701e-12,0
2.070000000000022,-2.9946283723057871e-12,0
2.0600000000000223,-2.8083846000333118e-12,0
2.0500000000000225,-2.6323460229438559e-12,0
2.0400000000000227,-2.4660588954873213e-12,0
2.030000000000023,-2.3090828896886744e-12,0
2.020000000000023,-2.160991128444607e-12,0
2.0100000000000233,-2.0213701811059803e-12,0
2.0000000000000235,-1.8898200244390509e-12,0
1.9900000000000235,-1.7659539718912291e-12,0
1.9800000000000235,-1.6493985739264159e-12,0
1.9700000000000235,-1.5397934920406879e-12,0
1.9600000000000235,-1.4367913489220192e-12,0
1.9500000000000235,-1.308110065873847e-12,0
1.9400000000000235,-1.2194004240886534e-12,0
1.9300000000000235,-1.1362126893637971e-12,0
1.9200000000000235,-1.0582546265888226e-12,0
1.9100000000000235,-9.8524575930481015e-13,0
1.9000000000000234,-9.1691712309022177e-13,0
1.8900000000000234,-8.530110089377794e-13,0
1.8800000000000234,-8.4596617964037751e-13,0
1.8700000000000234,-1.2716793938626636e-11,0
1.8600000000000234,-1.2529204159045768e-11,0
1.8500000000000234,-1.2341866594908533e-11,0
1.8400000000000234,-1.2154847143323637e-11,0
1.8300000000000234,-1.1968210140454828e-11,0
1.8200000000000234,-1.1782018375102929e-11,0
1.8100000000000234,-1.1596333102288071e-11,0
1.8000000000000234,-1.1411214056832024e-11,0
1.7900000000000234,-1.1226719466940361e-11,0
1.7800000000000233,-1.1042906067784581e-11,0
1.7700000000000233,-1.0859829115084438e-11,0
1.7600000000000233,-1.0677542398690131e-11,0
1.7500000000000233,-1.0496098256164458e-11,0
1.7400000000000233,-1.0315547586365144e-11,0
1.7300000000000233,-1.0135939863026896e-11,0
1.7200000000000233,-9.9573231483437885e-12,0
1.7100000000000233,-9.7797441065513787e-12,0
1.7000000000000233,-9.6032480175089388e-12,0
1.6900000000000233,-9.4278787902816393e-12,0
1.6800000000000233,-9.25367897672289e-12,0
1.6700000000000232,-9.0806897850564071e-12,0
1.6600000000000232,-8.9089510934584345e-12,0
1.6500000000000232,-8.7385014636401756e-12,0
1.6400000000000232,-8.5693781544296545e-12,0
1.6300000000000232,-8.40161713535424e-12,0
1.6200000000000232,-8.2352531002226766e-12,0
1.6100000000000232,-8.0703194807074626e-12,0
1.6000000000000232,-7.9068484599268458e-12,0
1.5900000000000232,-7.7448709860271921e-12,0
1.5800000000000232,-7.5844167857652442e-12,0
1.5700000000000232,-7.4255143780901788e-12,0
1.5600000000000231,-7.2681910877259198e-12,0
1.5500000000000231,-7.1124730587533614e-12,0
1.5400000000000231,-6.9583852681925672e-12,0
1.5300000000000231,-6.8059515395849053e-12,0
1.520000000000023,-6.6551945565754181e-12,0
1.510000000000023,-6.5061358764948939e-12,0
1.500000000000023,-6.3587959439421953e-12,0
1.490000000000023,-6.2131941043663884e-12,0
1.480000000000023,-6.0693486176489648e-12,0
1.470000000000023,-5.9272766716861463e-12,0
1.460000000000023,-5.7869943959709925e-12,0
1.450000000000023,-5.648516875175681e-12,0
1.440000000000023,-5.5118581627336576e-12,0
1.430000000000023,-5.3770312944219678e-12,0
1.420000000000023,-5.2440483019433392e-12,0
1.410000000000023,-5.1129202265084678e-12,0
1.400000000000023,-4.9836571324182355e-12,0
1.390000000000023,-4.8562681206459151e-12,0
1.380000000000023,-4.7307613424193634e-12,0
1.370000000000023,-4.6071440128032558e-12,0
1.360000000000023,-4.485422424281287e-12,0
1.350000000000023,-4.3656019603384662e-12,0
1.340000000000023,-4.2476871090431642e-12,0
1.330000000000023,-4.1316814766295079e-12,0
1.320000000000023,-4.0175878010794848e-12,0
1.310000000000023,-3.9054079657051949e-12,0
1.300000000000023,-3.7951430127310545e-12,0
1.290000000000023,-3.6867931568760092e-12,0
1.280000000000023,-3.5803577989357888e-12,0
1.2700000000000229,-3.4758355393650775e-12,0
1.2600000000000229,-3.3732241918597172e-12,0
1.2500000000000229,-3.2725207969389648e-12,0
1.2400000000000229,-3.1737216355277236e-12,0
1.2300000000000229,-3.0768222425386587e-12,0
1.2200000000000228,-2.9818174204545198e-12,0
1.2100000000000228,-2.8887012529103202e-12,0
1.2000000000000228,-2.7974671182755178e-12,0
1.1900000000000228,-2.7081077032362724e-12,0
1.1800000000000228,-2.6206150163776577e-12,0
1.1700000000000228,-2.5349804017658626e-12,0
1.1600000000000228,-2.4511945525303842e-12,0
1.1500000000000228,-2.3692475244462971e-12,0
1.1400000000000228,-2.2891287495164229e-12,0
1.1300000000000228,-2.2108270495535746e-12,0
1.1200000000000228,-2.1343306497627444e-12,0
1.1100000000000227,-2.0596271923233392e-12,0
1.1000000000000227,-1.9867037499713913e-12,0
1.0900000000000227,-1.9155468395817758e-12,0
1.0800000000000227,-1.8461424357504074e-12,0
1.0700000000000227,-1.7784759843764778e-12,0
1.0600000000000227,-1.7125324162446743e-12,0
1.0500000000000227,-1.648296160607361e-12,0
1.0400000000000227,-1.5857511587668221e-12,0
1.0300000000000227,-1.5248808776574857e-12,0
1.0200000000000227,-1.4656683234281109e-12,0
1.0100000000000227,-1.4080960550240189e-12,0
1.0000000000000226,-1.352146197769301e-12,0
0.9900000000000226,-1.2978004569490363e-12,0
3.01,-0.27870953330756221,1
3.01,0.27870953330756221,1
3.01,-1.3785030075550944e-11,0
3.0199999999999996,-0.28226012726756078,1
3.0199999999999996,0.28226012726756078,1
3.0199999999999996,-1.3516124248946472e-11,0
3.0299999999999994,-0.28572581856635082,1
3.0299999999999994,1.8615626787732865e-14,0
3.0299999999999994,0.28572581856635082,1
3.039999999999999,-0.28910826416611463,1
3.039999999999999,1.8615626787732865e-14,0
3.039999999999999,0.28910826416611463,1
3.049999999999999,-0.29240901880868198,1
3.049999999999999,1.8615626787732865e-14,0
3.049999999999999,0.29240901880868198,1
3.0599999999999987,-0.2956295547405452,1
3.0599999999999987,1.8615626787732865e-14,0
3.0599999999999987,0.2956295547405452,1
3.0699999999999985,-0.29877128137709186,1
3.0699999999999985,1.8615626787732865e-14,0
3.0699999999999985,0.29877128137709186,1
3.0799999999999983,-0.30183556531809069,1
3.0799999999999983,1.8615626787732865e-14,0
3.0799999999999983,0.30183556531809069,1
3.089999999999998,-0.30482375122123817,1
3.089999999999998,1.8615626787732865e-14,0
3.089999999999998,0.30482375122123817,1
3.099999999999998,-0.30773718410286177,1
3.099999999999998,-0.74373996762054673,0
3.099999999999998,1.8615626787732865e-14,0
3.099999999999998,0.30773718410286177,1
3.099999999999998,0.74373996762054673,0
3.1099999999999977,-0.31057723372649293,1
3.1099999999999977,-0.64361177718052143,0
3.1099999999999977,-1.0748996993167331e-18,0
3.1099999999999977,0.78419205026474093,0
3.1099999999999977,0.31057723372649293,1
3.1099999999999977,0.64361177718052143,0
3.1099999999999977,-0.78419205026474093,0
3.1199999999999974,-0.31334532177372665,1
3.1199999999999974,0.61964845478801556,0
3.1199999999999974,0.80915515904769297,0
3.1199999999999974,-2.3196373886231668e-21,0
3.1199999999999974,0.31334532177372665,1
3.1199999999999974,-0.61964845478801556,0
3.1199999999999974,-0.80915515904769297,0
3.1299999999999972,-0.31604295327603049,1
3.1299999999999972,0.60071565329015442,0
3.1299999999999972,0.82905351800108962,0
3.1299999999999972,-6.8250597068314571e-16,0
3.1299999999999972,-0.60071565398707771,0
3.1299999999999972,0.82905351965735741,0
3.1299999999999972,0.31604295327603049,1
3.1299999999999972,-0.60071565329015442,0
3.1299999999999972,-0.82905351800108962,0
3.1299999999999972,0.60071565398707771,0
3.1299999999999972,-0.82905351965735741,0
3.139999999999997,-0.31867175231663941,1
3.139999999999997,-0.58454270569598887,0
3.139999999999997,-0.84615657157959867,0
3.139999999999997,6.5490249114902709e-14,0
3.139999999999997,0.84615657142578538,0
3.139999999999997,0.31867175231663941,1
3.139999999999997,0.58454270569598887,0
3.139999999999997,0.84615657157959867,0
3.139999999999997,-0.84615657142578538,0
3.149999999999997,-0.32123350499892761,1
3.149999999999997,0.86142143724482334,0
3.149999999999997,-6.4283975690727797e-16,0
3.149999999999997,-0.57017118448938597,0
3.149999999999997,0.32123350499892761,1
3.149999999999997,-0.86142143724482334,0
3.149999999999997,0.57017118448938597,0
3.1599999999999966,-0.32373021058570278,1
3.1599999999999966,-0.87535912741358402,0
3.1599999999999966,-3.1788538532703665e-18,0
3.1599999999999966,0.55708867982804,0
3.1599999999999966,0.32373021058570278,1
3.1599999999999966,0.87535912741358402,0
3.1599999999999966,-0.55708867982804,0
3.1699999999999964,-0.32616414372518687,1
3.1699999999999964,0.54498279109931835,0
3.1699999999999964,-1.4977355066973287e-16,0
3.1699999999999964,0.88828054476337182,0
3.1699999999999964,0.32616414372518687,1
3.1699999999999964,-0.54498279109931835,0
3.1699999999999964,-0.88828054476337182,0
3.179999999999996,-0.32853793100891582,1
3.179999999999996,-0.53364610266343682,0
3.179999999999996,0.90039149815685682,0
3.179999999999996,-1.4977355066973287e-16,0
3.179999999999996,0.32853793100891582,1
3.179999999999996,0.53364610266343682,0
3.179999999999996,-0.90039149815685682,0
3.189999999999996,-0.33085464623673444,1
3.189999999999996,-0.52293231193286172,0
3.189999999999996,3.0969507524779928e-11,0
3.189999999999996,0.91183656288000714,0
3.189999999999996,-0.52293231207967628,0
3.189999999999996,-1.4977355066973287e-16,0
3.189999999999996,0.33085464623673444,1
3.189999999999996,0.52293231193286172,0
3.189999999999996,-3.0969507524779928e-11,0
3.189999999999996,-0.91183656288000714,0
3.189999999999996,0.52293231207967628,0
3.1999999999999957,-0.33311793022639907,1
3.1999999999999957,3.0969507524779928e-11,0
3.1999999999999957,0.92272188964502699,0
3.1999999999999957,-1.1799663516614482e-14,0
3.1999999999999957,0.51273340888982177,0
3.1999999999999957,0.33311793022639907,1
3.1999999999999957,-3.0969507524779928e-11,0
3.1999999999999957,-0.92272188964502699,0
3.1999999999999957,-0.51273340888982177,0
3.2099999999999955,-0.33533214301318942,1
3.2099999999999955,0.93312813216696799,0
3.2099999999999955,0.50296673276516601,0
3.2099999999999955,1.1960086694855329e-12,0
3.2099999999999955,1.1628954996442594e-11,0
3.2099999999999955,0.33533214301318942,1
3.2099999999999955,-3.0969507524779928e-11,0
3.2099999999999955,-0.93312813216696799,0
3.2099999999999955,-0.50296673276516601,0
3.2199999999999953,-0.3375025590460875,1
3.2199999999999953,0.94311827002214776,0
3.2199999999999953,0.49356713449049716,0
3.2199999999999953,7.1307420727832415e-14,0
3.2199999999999953,0.3375025590460875,1
3.2199999999999953,-3.0969507524779928e-11,0
3.2199999999999953,-0.94311827002214776,0
3.2199999999999953,-0.49356713449049716,0
3.229999999999995,-0.3396356197710072,1
3.229999999999995,0.95274259309251708,0
3.229999999999995,0.48448197304714163,0
3.229999999999995,0.48448197297584678,0
3.229999999999995,6.0700817543455498e-15,0
3.229999999999995,0.3396356197710072,1
3.229999999999995,-3.0969507524779928e-11,0
3.229999999999995,-0.95274259309251708,0
3.229999999999995,-0.48448197304714163,0
3.229999999999995,-0.48448197297584678,0
3.239999999999995,-0.3417392631190474,1
3.239999999999995,-0.96204201294294589,0
3.239999999999995,-0.47566778245763819,0
3.239999999999995,0.47566778258067161,0
3.239999999999995,-2.3568040352618521e-19,0
3.239999999999995,0.3417392631190474,1
3.239999999999995,-3.0969507524779928e-11,0
3.239999999999995,0.96204201294294589,0
3.239999999999995,0.47566778245763819,0
3.239999999999995,-0.47566778258067161,0
3.2499999999999947,-0.34382335618301907,1
3.2499999999999947,-0.97105034022350734,0
3.2499999999999947,0.46708797114849104,0
3.2499999999999947,-1.372996886218472e-15,0
3.2499999999999947,0.34382335618301907,1
3.2499999999999947,-3.0969507524779928e-11,0
3.2499999999999947,0.97105034022350734,0
3.2499999999999947,-0.46708797114849104,0
3.2599999999999945,-0.3459002657696445,1
3.2599999999999945,-0.97979589711272952,0
3.2599999999999945,0.4587111790529938,0
3.2599999999999945,1.8668066422135089e-18,0
3.2599999999999945,0.3459002657696445,1
3.2599999999999945,-3.0969507524779928e-11,0
3.2599999999999945,0.97979589711272952,0
3.2599999999999945,-0.4587111790529938,0
3.2699999999999942,-0.34798561049392418,1
3.2699999999999942,0.98830268769844543,0
3.2699999999999942,0.45051007556822753,0
3.2699999999999942,1.3132069894131897e-15,0
3.2699999999999942,0.34798561049392418,1
3.2699999999999942,-3.0969507524779928e-11,0
3.2699999999999942,-0.98830268769844543,0
3.2699999999999942,-0.45051007556822753,0
3.279999999999994,-0.35009924339440041,1
3.279999999999994,0.99659126599447301,0
3.279999999999994,0.44246045195713068,0
3.279999999999994,-3.0433629097050994e-20,0
3.279999999999994,0.35009924339440041,1
3.279999999999994,-3.0969507524779928e-11,0
3.279999999999994,-0.99659126599447301,0
3.279999999999994,-0.44246045195713068,0
3.289999999999994,-0.35226650266712389,1
3.289999999999994,-1.0046793918327876,0
3.289999999999994,0.43454051971538521,0
3.289999999999994,5.9625687646524086e-12,0
3.289999999999994,0.35226650266712389,1
3.289999999999994,-3.0969507524779928e-11,0
3.289999999999994,1.0046793918327876,0
3.289999999999994,-0.43454051971538521,0
3.2999999999999936,-0.35451970370426372,1
3.2999999999999936,-1.0125825346987702,0
3.2999999999999936,0.42673035233341622,0
3.2999999999999936,-1.987716562928574e-19,0
3.2999999999999936,0.35451970370426372,1
3.2999999999999936,-3.0969507524779928e-11,0
3.2999999999999936,1.0125825346987702,0
3.2999999999999936,-0.42673035233341622,0
3.3099999999999934,-0.35689963225826588,1
3.3099999999999934,-1.020314266667069,0
3.3099999999999934,0.41901142764350713,0
3.3099999999999934,-1.987716562928574e-19,0
3.3099999999999934,0.35689963225826588,1
3.3099999999999934,-3.0969507524779928e-11,0
3.3099999999999934,1.020314266667069,0
3.3099999999999934,-0.41901142764350713,0
3.319999999999993,-0.35945619795070538,1
3.319999999999993,0.41136623963763386,0
3.319999999999993,1.0278865725631179,0
3.319999999999993,-1.987716562928574e-19,0
3.319999999999993,0.35945619795070538,1
3.319999999999993,-3.0969507524779928e-11,0
3.319999999999993,-0.41136623963763386,0
3.319999999999993,-1.0278865725631179,0
3.329999999999993,-0.36224589840896793,1
3.329999999999993,-0.40377795620338053,0
3.329999999999993,1.0353100979928056,0
3.329999999999993,5.87912135276062e-17,0
3.329999999999993,0.36224589840896793,1
3.329999999999993,-3.0969507524779928e-11,0
3.329999999999993,0.40377795620338053,0
3.329999999999993,-1.0353100979928056,0
3.3399999999999928,-0.36532055030056626,1
3.3399999999999928,-0.39623010364305544,0
3.3399999999999928,1.0425943497076533,0
3.3399999999999928,-2.6410352062343891e-12,0
3.3399999999999928,0.36532055030056626,1
3.3399999999999928,0.39623010364305544,0
3.3399999999999928,-1.0425943497076533,0
3.3499999999999925,-0.36869759267858759,1
3.3499999999999925,-1.0497478589207248,0
3.3499999999999925,-0.38870626165758149,0
3.3499999999999925,-2.6410352062343891e-12,0
3.3499999999999925,0.36869759267858759,1
3.3499999999999925,1.0497478589207248,0
3.3499999999999925,0.38870626165758149,0
3.3599999999999923,-0.3723074723199869,1
3.3599999999999923,-1.0567783158705648,0
3.3599999999999923,-2.3488093346415271e-19,0
3.3599999999999923,-0.38118975242729281,0
3.3599999999999923,0.3723074723199869,1
3.3599999999999923,1.0567783158705648,0
3.3599999999999923,0.38118975242729281,0
3.369999999999992,-1.0636926812610761,0
3.369999999999992,-2.3488093346415271e-19,0
3.369999999999992,-0.37366330743429543,0
3.369999999999992,1.0636926812610761,0
3.369999999999992,0.37366330743429543,0
3.379999999999992,-1.0704972795980801,0
3.379999999999992,0.36610869202250107,0
3.379999999999992,-2.3488093346415271e-19,0
3.379999999999992,1.0704972795980801,0
3.379999999999992,-0.36610869202250107,0
3.3899999999999917,-1.0771978775845061,0
3.3899999999999917,7.9646559455809671e-13,0
3.3899999999999917,-0.35850626296164961,0
3.3899999999999917,1.0771978775845061,0
3.3899999999999917,0.35850626296164961,0
3.3999999999999915,-0.35083442544464877,0
3.3999999999999915,-1.4193999555762614e-11,0
3.3999999999999915,1.0837997505807297,0
3.3999999999999915,0.35083442544464877,0
3.3999999999999915,-1.0837997505807297,0
3.4099999999999913,0.34306894181257502,0
3.4099999999999913,-1.0903077392879685,0
3.4099999999999913,-2.0328975156469231e-12,0
3.4099999999999913,-0.34306894181257502,0
3.4099999999999913,1.0903077392879685,0
3.419999999999991,0.33518202154737681,0
3.419999999999991,-1.8882447648671069e-17,0
3.419999999999991,-1.0967262981461317,0
3.419999999999991,-0.33518202154737681,0
3.419999999999991,1.0967262981461317,0
3.429999999999991,-1.8882447648671069e-17,0
3.429999999999991,-1.1030595371928547,0
3.429999999999991,-0.32714108395530339,0
3.429999999999991,1.1030595371928547,0
3.429999999999991,0.32714108395530339,0
3.4399999999999906,9.9405797084545762e-12,0
3.4399999999999906,-0.31890702011684285,0
3.4399999999999906,-1.1093112581428339,0
3.4399999999999906,0.31890702011684285,0
3.4399999999999906,1.1093112581428339,0
3.4499999999999904,-0.31043166510594722,0
3.4499999999999904,-1.1154849858159066,0
3.4499999999999904,-0.31043166532728483,0
3.4499999999999904,-1.2260443535505609e-17,0
3.4499999999999904,0.31043166510594722,0
3.4499999999999904,1.1154849858159066,0
3.4499999999999904,0.31043166532728483,0
3.45999999999999,-1.1215839955846854,0
3.45999999999999,-0.30165397627335494,0
3.45999999999999,-1.2260443535505609e-17,0
3.45999999999999,1.1215839955846854,0
3.45999999999999,0.30165397627335494,0
3.46999999999999,0.29249398811721111,0
3.46999999999999,-1.127611337334854,0
3.46999999999999,-1.2260443535505609e-17,0
3.46999999999999,-0.29249398811721111,0
3.46999999999999,1.127611337334854,0
3.4799999999999898,-2.0719355740417419e-10,0
3.4799999999999898,-1.1335698566374928,0
3.4799999999999898,-0.28284271247352161,0
3.4799999999999898,-5.8188832046982236e-11,0
3.4799999999999898,-1.2260443535505609e-17,0
3.4799999999999898,2.0719355740417419e-10,0
3.4799999999999898,1.1335698566374928,0
3.4799999999999898,0.28284271247352161,0
3.4799999999999898,5.8188832046982236e-11,0
3.4899999999999896,-2.0719355740417419e-10,0
3.4899999999999896,-1.1394622133636187,0
3.4899999999999896,-1.8797407254552618e-12,0
3.4899999999999896,-0.27254406270336912,0
3.4899999999999896,-5.8188832046982236e-11,0
3.4899999999999896,2.0719355740417419e-10,0
3.4899999999999896,1.1394622133636187,0
3.4899999999999896,0.27254406270336912,0
3.4899999999999896,5.8188832046982236e-11,0
3.4999999999999893,-2.0719355740417419e-10,0
3.4999999999999893,-1.1452908982891532,0
3.4999999999999893,-1.8797407254552618e-12,0
3.4999999999999893,-0.26135944291981339,0
3.4999999999999893,-0.0001205698177177641,0
3.4999999999999893,-5.8188832046982236e-11,0
3.4999999999999893,2.0719355740417419e-10,0
3.4999999999999893,1.1452908982891532,0
3.4999999999999893,0.26135944291981339,0
3.4999999999999893,0.0001205698177177641,0
3.4999999999999893,5.8188832046982236e-11,0
3.509999999999989,-2.0719355740417419e-10,0
3.509999999999989,-1.1510582476787574,0
3.509999999999989,0.05584918285805094,0
3.509999999999989,-1.8797407254552618e-12,0
3.509999999999989,-0.24888909031818351,0
3.509999999999989,-0.05584918266923216,0
3.509999999999989,9.9576430212048495e-10,0
3.509999999999989,-0.055849182606464196,0
3.509999999999989,-5.8188832046982236e-11,0
3.509999999999989,2.0719355740417419e-10,0
3.509999999999989,1.1510582476787574,0
3.509999999999989,-0.05584918285805094,0
3.509999999999989,0.24888909031818351,0
3.509999999999989,0.05584918266923216,0
3.509999999999989,-9.9576430212048495e-10,0
3.509999999999989,0.055849182606464196,0
3.509999999999989,5.8188832046982236e-11,0
3.519999999999989,-2.0719355740417419e-10,0
3.519999999999989,-1.1567664574120358,0
3.519999999999989,-5.8063073918263344e-15,0
3.519999999999989,-0.083465005501793435,0
3.519999999999989,1.1567664563942084,0
3.519999999999989,0.083465005626600253,0
3.519999999999989,9.9576723763891848e-10,0
3.519999999999989,-0.2343607437304096,0
3.519999999999989,-5.8188832046982236e-11,0
3.519999999999989,2.0719355740417419e-10,0
3.519999999999989,1.1567664574120358,0
3.519999999999989,0.083465005501793435,0
3.519999999999989,-1.1567664563942084,0
3.519999999999989,-0.083465005626600253,0
3.519999999999989,-9.9576723763891848e-10,0
3.519999999999989,0.2343607437304096,0
3.519999999999989,5.8188832046982236e-11,0
3.5299999999999887,-2.0719355740417419e-10,0
3.5299999999999887,-0.11045838373350492,0
3.5299999999999887,-4.055490000904996e-17,0
3.5299999999999887,0.21583394696656247,0
3.5299999999999887,-1.1624175896817222,0
3.5299999999999887,1.1624175905914125,0
3.5299999999999887,0.11045838386678632,0
3.5299999999999887,9.9577017315735264e-10,0
3.5299999999999887,-5.8188832046982236e-11,0
3.5299999999999887,2.0719355740417419e-10,0
3.5299999999999887,0.11045838373350492,0
3.5299999999999887,-0.21583394696656247,0
3.5299999999999887,1.1624175896817222,0
3.5299999999999887,-1.1624175905914125,0
3.5299999999999887,-0.11045838386678632,0
3.5299999999999887,-9.9577017315735264e-10,0
3.5299999999999887,5.8188832046982236e-11,0
3.5399999999999885,-2.0719355740417419e-10,0
3.5399999999999885,0.18165035032743768,0
3.5399999999999885,0.15082239843293341,0
3.5399999999999885,1.3636864881504687e-12,0
3.5399999999999885,-1.168013594323895,0
3.5399999999999885,-0.18165034972058802,0
3.5399999999999885,9.9577310867578782e-10,0
3.5399999999999885,-5.8188832046982236e-11,0
3.5399999999999885,2.0719355740417419e-10,0
3.5399999999999885,-0.18165035032743768,0
3.5399999999999885,-0.15082239843293341,0
3.5399999999999885,1.168013594323895,0
3.5399999999999885,0.18165034972058802,0
3.5399999999999885,-9.9577310867578782e-10,0
3.5399999999999885,5.8188832046982236e-11,0
3.5499999999999883,-2.0719355740417419e-10,0
3.5499999999999883,3.4671581935499749e-17,0
3.5499999999999883,-1.1735563048181916,0
3.5499999999999883,9.9577604419422363e-10,0
3.5499999999999883,-5.8188832046982236e-11,0
3.5499999999999883,2.0719355740417419e-10,0
3.5499999999999883,1.1735563048181916,0
3.5499999999999883,-9.9577604419422363e-10,0
3.5499999999999883,5.8188832046982236e-11,0
3.559999999999988,-2.0719355740417419e-10,0
3.559999999999988,3.4671672082427141e-17,0
3.559999999999988,-1.179047456813807,0
3.559999999999988,1.1790474561181219,0
3.559999999999988,9.9577897971266047e-10,0
3.559999999999988,-5.8188832046982236e-11,0
3.559999999999988,2.0719355740417419e-10,0
3.559999999999988,1.179047456813807,0
3.559999999999988,-1.1790474561181219,0
3.559999999999988,-9.9577897971266047e-10,0
3.559999999999988,5.8188832046982236e-11,0
3.569999999999988,-2.0719404890509795e-10,0
3.569999999999988,3.4671762229354564e-17,0
3.569999999999988,-1.1844886916972202,0
3.569999999999988,-5.8188962112823762e-11,0
3.569999999999988,2.0719404890509795e-10,0
3.569999999999988,1.1844886916972202,0
3.569999999999988,5.8188962112823762e-11,0
3.5799999999999876,-2.0719469831892819e-10,0
3.5799999999999876,3.4671852376282005e-17,0
3.5799999999999876,-1.1898815637901279,0
3.5799999999999876,-5.8189135970867378e-11,0
3.5799999999999876,2.0719469831892819e-10,0
3.5799999999999876,1.1898815637901279,0
3.5799999999999876,5.8189135970867378e-11,0
3.5899999999999874,-2.0719534773275862e-10,0
3.5899999999999874,3.4671942523209477e-17,0
3.5899999999999874,-1.195227547234017,0
3.5899999999999874,-5.8189309828911039e-11,0
3.5899999999999874,2.0719534773275862e-10,0
3.5899999999999874,1.195227547234017,0
3.5899999999999874,5.8189309828911039e-11,0
3.599999999999987,-2.0719599714658931e-10,0
3.599999999999987,3.4672032670136961e-17,0
3.599999999999987,-1.2005280413443091,0
3.599999999999987,-5.8189483686954745e-11,0
3.599999999999987,2.0719599714658931e-10,0
3.599999999999987,1.2005280413443091,0
3.599999999999987,5.8189483686954745e-11,0
3.609999999999987,-2.0719664656042015e-10,0
3.609999999999987,3.4672122817064477e-17,0
3.609999999999987,-1.2057843758234952,0
3.609999999999987,1.2057843753772095,0
3.609999999999987,-5.8189657544998516e-11,0
3.609999999999987,2.0719664656042015e-10,0
3.609999999999987,1.2057843758234952,0
3.609999999999987,-1.2057843753772095,0
3.609999999999987,5.8189657544998516e-11,0
3.619999999999987,-2.0719729597425122e-10,0
3.619999999999987,3.467221296399201e-17,0
3.619999999999987,-1.2109978157991084,0
3.619999999999987,1.2109978153961538,0
3.619999999999987,-5.8189831403042333e-11,0
3.619999999999987,2.0719729597425122e-10,0
3.619999999999987,1.2109978157991084,0
3.619999999999987,-1.2109978153961538,0
3.619999999999987,5.8189831403042333e-11,0
3.6299999999999866,-2.071979453880825e-10,0
3.6299999999999866,3.4672303110919569e-17,0
3.6299999999999866,1.2161695657901719,0
3.6299999999999866,-1.2161695653941837,0
3.6299999999999866,-5.8190005261086194e-11,0
3.6299999999999866,2.071979453880825e-10,0
3.6299999999999866,-1.2161695657901719,0
3.6299999999999866,1.2161695653941837,0
3.6299999999999866,5.8190005261086194e-11,0
3.6399999999999864,-2.0719859480191401e-10,0
3.6399999999999864,3.4672393257847152e-17,0
3.6399999999999864,1.2213007738661941,0
3.6399999999999864,-1.2213007734938468,0
3.6399999999999864,-5.819017911913012e-11,0
3.6399999999999864,2.0719859480191401e-10,0
3.6399999999999864,-1.2213007738661941,0
3.6399999999999864,1.2213007734938468,0
3.6399999999999864,5.819017911913012e-11,0
3.649999999999986,-2.0719924421574571e-10,0
3.649999999999986,1.2263925352905285,0
3.649999999999986,-1.2263925349523437,0
3.649999999999986,-5.2484442568846106e-15,0
3.649999999999986,-5.8190352977174092e-11,0
3.649999999999986,2.0719924421574571e-10,0
3.649999999999986,-1.2263925352905285,0
3.649999999999986,1.2263925349523437,0
3.649999999999986,5.8190352977174092e-11,0
3.659999999999986,-2.0719989362957761e-10,0
3.659999999999986,1.2314458958619792,0
3.659999999999986,-1.2314458955439638,0
3.659999999999986,-5.2484579617585394e-15,0
3.659999999999986,-5.8190526835218102e-11,0
3.659999999999986,2.0719989362957761e-10,0
3.659999999999986,-1.2314458958619792,0
3.659999999999986,1.2314458955439638,0
3.659999999999986,5.8190526835218102e-11,0
3.6699999999999857,-2.0720054304340974e-10,0
3.6699999999999857,1.2364618549372726,0
3.6699999999999857,-5.2484716666324707e-15,0
3.6699999999999857,-5.8190700693262177e-11,0
3.6699999999999857,2.0720054304340974e-10,0
3.6699999999999857,-1.2364618549372726,0
3.6699999999999857,5.8190700693262177e-11,0
3.6799999999999855,-2.0720119245724208e-10,0
3.6799999999999855,1.2414413682987839,0
3.6799999999999855,-5.2484853715064051e-15,0
3.6799999999999855,-5.8190874551306297e-11,0
3.6799999999999855,2.0720119245724208e-10,0
3.6799999999999855,-1.2414413682987839,0
3.6799999999999855,5.8190874551306297e-11,0
3.6899999999999853,-2.0720184187107463e-10,0
3.6899999999999853,1.2463853507934071,0
3.6899999999999853,-5.2484990763803434e-15,0
3.6899999999999853,-5.8191048409350475e-11,0
3.6899999999999853,2.0720184187107463e-10,0
3.6899999999999853,-1.2463853507934071,0
3.6899999999999853,5.8191048409350475e-11,0
3.699999999999985,-2.0720249128490741e-10,0
3.699999999999985,1.2512946788124817,0
3.699999999999985,-5.2485127812542842e-15,0
3.699999999999985,-5.8191222267394698e-11,0
3.699999999999985,2.0720249128490741e-10,0
3.699999999999985,-1.2512946788124817,0
3.699999999999985,5.8191222267394698e-11,0
3.709999999999985,-2.0720314069874037e-10,0
3.709999999999985,1.2561701922348527,0
3.709999999999985,-5.2485264861282288e-15,0
3.709999999999985,-5.8191396125438973e-11,0
3.709999999999985,2.0720314069874037e-10,0
3.709999999999985,-1.2561701922348527,0
3.709999999999985,5.8191396125438973e-11,0
3.7199999999999847,-2.0720379011257354e-10,0
3.7199999999999847,1.2610126970070368,0
3.7199999999999847,-5.2485401910021766e-15,0
3.7199999999999847,-5.8191569983483306e-11,0
3.7199999999999847,2.0720379011257354e-10,0
3.7199999999999847,-1.2610126970070368,0
3.7199999999999847,5.8191569983483306e-11,0
3.7299999999999844,-2.0720443952640694e-10,0
3.7299999999999844,1.265822966598326,0
3.7299999999999844,-5.2485538958761284e-15,0
3.7299999999999844,-5.8191743841527685e-11,0
3.7299999999999844,2.0720443952640694e-10,0
3.7299999999999844,-1.265822966598326,0
3.7299999999999844,5.8191743841527685e-11,0
3.7399999999999842,-2.0720508894024052e-10,0
3.7399999999999842,1.2706017439902419,0
3.7399999999999842,-5.2485676007500825e-15,0
3.7399999999999842,-5.8191917699572115e-11,0
3.7399999999999842,2.0720508894024052e-10,0
3.7399999999999842,-1.2706017439902419,0
3.7399999999999842,5.8191917699572115e-11,0
3.749999999999984,-2.0720573835407433e-10,0
3.749999999999984,1.275349743323954,0
3.749999999999984,-5.2485813056240406e-15,0
3.749999999999984,-5.8192091557616597e-11,0
3.749999999999984,2.0720573835407433e-10,0
3.749999999999984,-1.275349743323954,0
3.749999999999984,5.8192091557616597e-11,0
3.759999999999984,-2.0720638776790836e-10,0
3.759999999999984,1.2800676514805975,0
3.759999999999984,-5.2485950104980018e-15,0
3.759999999999984,-5.8192265415661131e-11,0
3.759999999999984,2.0720638776790836e-10,0
3.759999999999984,-1.2800676514805975,0
3.759999999999984,5.8192265415661131e-11,0
3.7699999999999836,-2.0720703718174263e-10,0
3.7699999999999836,1.2847561294649013,0
3.7699999999999836,-5.2486087153719662e-15,0
3.7699999999999836,-5.8192439273705709e-11,0
3.7699999999999836,2.0720703718174263e-10,0
3.7699999999999836,-1.2847561294649013,0
3.7699999999999836,5.8192439273705709e-11,0
3.7799999999999834,-2.0720768659557704e-10,0
3.7799999999999834,1.2894158137623692,0
3.7799999999999834,-5.2486224202459337e-15,0
3.7799999999999834,-5.8192613131750346e-11,0
3.7799999999999834,2.0720768659557704e-10,0
3.7799999999999834,-1.2894158137623692,0
3.7799999999999834,5.8192613131750346e-11,0
3.789999999999983,-2.0720833600941171e-10,0
3.789999999999983,1.2940473175922027,0
3.789999999999983,-5.248636125119906e-15,0
3.789999999999983,-5.8192786989795035e-11,0
3.789999999999983,2.0720833600941171e-10,0
3.789999999999983,-1.2940473175922027,0
3.789999999999983,5.8192786989795035e-11,0
3.799999999999983,-2.0720898542324658e-10,0
3.799999999999983,1.2986512321749455,0
3.799999999999983,-5.2486498299938806e-15,0
3.799999999999983,-5.8192960847839776e-11,0
3.799999999999983,2.0720898542324658e-10,0
3.799999999999983,-1.2986512321749455,0
3.799999999999983,5.8192960847839776e-11,0
3.8099999999999827,-2.0720963483708164e-10,0
3.8099999999999827,1.3032281276641888,0
3.8099999999999827,-5.2486635348678569e-15,0
3.8099999999999827,-5.8193134705884561e-11,0
3.8099999999999827,2.0720963483708164e-10,0
3.8099999999999827,-1.3032281276641888,0
3.8099999999999827,5.8193134705884561e-11,0
3.8199999999999825,-2.072102842509169e-10,0
3.8199999999999825,1.3077785543365608,0
3.8199999999999825,-5.2486772397418378e-15,0
3.8199999999999825,-5.8193308563929405e-11,0
3.8199999999999825,2.072102842509169e-10,0
3.8199999999999825,-1.3077785543365608,0
3.8199999999999825,5.8193308563929405e-11,0
3.8299999999999823,-2.0721093366475242e-10,0
3.8299999999999823,1.3123030434241028,0
3.8299999999999823,-5.2486909446158227e-15,0
3.8299999999999823,-5.8193482421974294e-11,0
3.8299999999999823,2.0721093366475242e-10,0
3.8299999999999823,-1.3123030434241028,0
3.8299999999999823,5.8193482421974294e-11,0
3.839999999999982,-2.0721158307858815e-10,0
3.839999999999982,1.3168021081656889,0
3.839999999999982,-5.24870464948981e-15,0
3.839999999999982,-5.8193656280019241e-11,0
3.839999999999982,2.0721158307858815e-10,0
3.839999999999982,-1.3168021081656889,0
3.839999999999982,5.8193656280019241e-11,0
3.849999999999982,-2.0721223249242405e-10,0
3.849999999999982,1.3212762445120541,0
3.849999999999982,-5.2487183543638019e-15,0
3.849999999999982,-5.8193830138064234e-11,0
3.849999999999982,2.0721223249242405e-10,0
3.849999999999982,-1.3212762445120541,0
3.849999999999982,5.8193830138064234e-11,0
3.8599999999999817,-2.0721288190626017e-10,0
3.8599999999999817,1.3257259320526125,0
3.8599999999999817,-5.2487320592377963e-15,0
3.8599999999999817,-5.8194003996109278e-11,0
3.8599999999999817,2.0721288190626017e-10,0
3.8599999999999817,-1.3257259320526125,0
3.8599999999999817,5.8194003996109278e-11,0
3.8699999999999815,-2.0721353132009649e-10,0
3.8699999999999815,1.3301516346787789,0
3.8699999999999815,-5.2487457641117938e-15,0
3.8699999999999815,-5.8194177854154367e-11,0
3.8699999999999815,2.0721353132009649e-10,0
3.8699999999999815,-1.3301516346787789,0
3.8699999999999815,5.8194177854154367e-11,0
3.8799999999999812,-2.0721418073393307e-10,0
3.8799999999999812,1.3345538013603131,0
3.8799999999999812,-5.2487594689857953e-15,0
3.8799999999999812,-5.8194351712199521e-11,0
3.8799999999999812,2.0721418073393307e-10,0
3.8799999999999812,-1.3345538013603131,0
3.8799999999999812,5.8194351712199521e-11,0
3.889999999999981,-2.0721483014776983e-10,0
3.889999999999981,1.3389328667222131,0
3.889999999999981,-5.2487731738597999e-15,0
3.889999999999981,-5.819452557024472e-11,0
3.889999999999981,2.0721483014776983e-10,0
3.889999999999981,-1.3389328667222131,0
3.889999999999981,5.819452557024472e-11,0
3.899999999999981,-2.0721547956160682e-10,0
3.899999999999981,1.3432892518000688,0
3.899999999999981,-5.2487868787338069e-15,0
3.899999999999981,-5.8194699428289971e-11,0
3.899999999999981,2.0721547956160682e-10,0
3.899999999999981,-1.3432892518000688,0
3.899999999999981,5.8194699428289971e-11,0
3.9099999999999806,-2.0721612897544397e-10,0
3.9099999999999806,1.347623364584619,0
3.9099999999999806,-5.2488005836078186e-15,0
3.9099999999999806,-5.8194873286335267e-11,0
3.9099999999999806,2.0721612897544397e-10,0
3.9099999999999806,-1.347623364584619,0
3.9099999999999806,5.8194873286335267e-11,0
3.9199999999999804,-2.0721677838928138e-10,0
3.9199999999999804,1.3519356004713947,0
3.9199999999999804,-5.2488142884818327e-15,0
3.9199999999999804,-5.8195047144380628e-11,0
3.9199999999999804,2.0721677838928138e-10,0
3.9199999999999804,-1.3519356004713947,0
3.9199999999999804,5.8195047144380628e-11,0
3.92999999999998,-2.0721742780311897e-10,0
3.92999999999998,1.3562263430441366,0
3.92999999999998,-5.2488279933558507e-15,0
3.92999999999998,-5.8195221002426028e-11,0
3.92999999999998,2.0721742780311897e-10,0
3.92999999999998,-1.3562263430441366,0
3.92999999999998,5.8195221002426028e-11,0
3.93999999999998,-2.0721807721695676e-10,0
3.93999999999998,1.3604959642501555,0
3.93999999999998,-5.2488416982298726e-15,0
3.93999999999998,-5.8195394860471485e-11,0
3.93999999999998,2.0721807721695676e-10,0
3.93999999999998,-1.3604959642501555,0
3.93999999999998,5.8195394860471485e-11,0
3.9499999999999797,-2.0721872663079479e-10,0
3.9499999999999797,1.3647448252237375,0
3.9499999999999797,-5.2488554031038962e-15,0
3.9499999999999797,-5.8195568718516988e-11,0
3.9499999999999797,2.0721872663079479e-10,0
3.9499999999999797,-1.3647448252237375,0
3.9499999999999797,5.8195568718516988e-11,0
3.9599999999999795,-2.0721937604463305e-10,0
3.9599999999999795,1.3689732764614588,0
3.9599999999999795,-5.2488691079779237e-15,0
3.9599999999999795,-5.8195742576562543e-11,0
3.9599999999999795,2.0721937604463305e-10,0
3.9599999999999795,-1.3689732764614588,0
3.9599999999999795,5.8195742576562543e-11,0
3.9699999999999793,-2.0722002545847149e-10,0
3.9699999999999793,1.3731816583949985,0
3.9699999999999793,-5.2488828128519551e-15,0
3.9699999999999793,-5.8195916434608149e-11,0
3.9699999999999793,2.0722002545847149e-10,0
3.9699999999999793,-1.3731816583949985,0
3.9699999999999793,5.8195916434608149e-11,0
3.979999999999979,-2.0722067487231016e-10,0
3.979999999999979,1.3773703017365277,0
3.979999999999979,-5.2488965177259889e-15,0
3.979999999999979,-5.8196090292653814e-11,0
3.979999999999979,2.0722067487231016e-10,0
3.979999999999979,-1.3773703017365277,0
3.979999999999979,5.8196090292653814e-11,0
3.989999999999979,-2.0722132428614902e-10,0
3.989999999999979,1.3815395279574831,0
3.989999999999979,-5.2489102226000267e-15,0
3.989999999999979,-5.8196264150699524e-11,0
3.989999999999979,2.0722132428614902e-10,0
3.989999999999979,-1.3815395279574831,0
3.989999999999979,5.8196264150699524e-11,0
3.9999999999999787,-2.0722197369998808e-10,0
3.9999999999999787,1.3856896494285262,0
3.9999999999999787,-5.2489239274740676e-15,0
3.9999999999999787,-5.8196438008745285e-11,0
3.9999999999999787,2.0722197369998808e-10,0
3.9999999999999787,-1.3856896494285262,0
3.9999999999999787,5.8196438008745285e-11,0
4.0099999999999785,-2.0722262311382735e-10,0
4.0099999999999785,1.3898209700974611,0
4.0099999999999785,-5.2489376323481116e-15,0
4.0099999999999785,-5.8196611866791105e-11,0
4.0099999999999785,2.0722262311382735e-10,0
4.0099999999999785,-1.3898209700974611,0
4.0099999999999785,5.8196611866791105e-11,0
