5.25,-1.3792432699999999,-0.50706443999999995,0.32210527999999999,-0.47999878000000001,0.33630029,11.749814049999999,
5.2505,-1.37897415496647,-0.50703418574417514,0.3220541624885111,-0.48010894143002714,0.33637256729818737,11.78532999952378,
5.2509999999999994,-1.3786734233250872,-0.50699916965855107,0.32199500953014232,-0.48022254827185001,0.3364420529305725,11.820162479655821,
5.251499999999999,-1.3783436098250759,-0.50695973887880208,0.32192841850525505,-0.48033933789757177,0.336508752871231,11.854325788110256,
5.251999999999999,-1.3779870792369573,-0.50691622155638594,0.32185494539937176,-0.48045906254633708,0.33657268276973745,11.887835796622126,
5.251999999999999,-1.464446895000864,-0.46570142541159526,0.68199500644146793,-0.25417754111858537,0.93057377717521905,4.4547324533995134,
5.252499999999999,-1.3776060334836906,-0.50686892372876435,0.3217751093302012,-0.48058149063766425,0.33663386275758977,11.920709540454594,
5.252499999999999,-1.4646633346070135,-0.46567637049914762,0.68205910566575534,-0.2541451945848619,0.93059287043117989,4.2730187810614888,
5.252999999999998,-1.3772025181968475,-0.5068181302283119,0.32168939393343637,-0.48070640626174121,0.33669231692404322,11.952964853047074,
5.252999999999998,-1.4648797116952932,-0.46565131905845702,0.68212317001460276,-0.25411286485219281,0.9306119504998247,4.2711501857437995,
5.252999999999998,-0.47589539258221575,-0.3880183776871089,0.18465615817597128,-0.49254791463587283,0.58600320799564487,0.14977992315093688,
5.253499999999998,-1.3767784301664441,-0.50676410567872587,0.32159824895316919,-0.48083360851756674,0.33674807276889529,11.984620056489566,
5.253499999999998,-1.4650960263143769,-0.46562627108821442,0.68218719952091011,-0.25408055190497109,0.93063101739185483,4.2691247847917859,
5.253499999999998,-0.47574162644540857,-0.38793929002403127,0.18455886880157801,-0.49257526911172589,0.58584639918400305,0.14980353395755766,
5.253499999999998,6.3088799245194865e-13,6.5641667980336778e-13,-5.2496454166419079e-14,2.0564919645115298e-12,-4.1347902160559591e-13,0.003015049627860865,
5.253999999999998,-1.3763355253968566,-0.50670709557812899,0.3215020919824792,-0.48096291078908288,0.33680116067675381,12.01569370018256,
5.253999999999998,-1.4653122785330366,-0.46560122658927,0.68225119422294211,-0.25404825572437051,0.9306500711252178,4.267320268609363,
5.253999999999998,-0.4755878976198874,-0.38786018773137615,0.18446161125363367,-0.49260257738447244,0.58568956035064967,0.10125654761435679,
5.253999999999998,6.3088799245194865e-13,6.5641667980336778e-13,-5.2496454166419079e-14,2.0564919645115298e-12,-4.1347902160559591e-13,0.003015049627860865,
5.2544999999999975,-1.3758754274848304,-0.50664732742165897,0.3214013102880432,-0.48109413997101291,0.33685161341788394,12.046204344440191,
5.2544999999999975,-1.4655284684115173,-0.4655761855613853,0.68231515415647492,-0.25401597629279599,0.93066911171405187,4.2654393548829335,
5.2544999999999975,-0.47543420599406494,-0.38778107076691604,0.18436438548208214,-0.49262983943105448,0.5855326913965071,0.10126908261707232,
5.2544999999999975,6.3088799245194865e-13,6.5641667980336778e-13,-5.2496454166419079e-14,2.0564919645115298e-12,-4.1347902160559591e-13,0.003015049627860865,
5.254999999999997,-1.3753996361014063,-0.50658501183685223,0.32129626266978434,-0.48122713567026709,0.33689946568483842,12.076170384122442,
5.254999999999997,-1.4657445960168425,-0.46555114800515834,0.6823790793597645,-0.25398371359158201,0.93068813917596083,4.2635972822469599,
5.254999999999997,-0.47528055149251125,-0.38770193912001283,0.18426719144216136,-0.49265705524899989,0.58537579228784398,0.10128162489588094,
5.254999999999997,6.3088799245194865e-13,6.5641667980336778e-13,-5.2496454166419079e-14,2.0564919645115298e-12,-4.1347902160559591e-13,0.003015049627860865,
5.255499999999997,-1.37490953540592,-0.50652034370966592,0.32118728131616137,-0.48136174940198873,0.33694475366940158,12.105609907404427,
5.255499999999997,-1.4659606614122247,-0.46552611392073695,0.6824429698697021,-0.25395146760268733,0.93070715352666444,4.2617479814930261,
5.255499999999997,-0.47512693402797435,-0.38762279276542566,0.18417002908848509,-0.49268422482453883,0.58521886296137404,0.10129418138507665,
5.255499999999997,-2.0682172482651008e-14,-2.1496617822493169e-14,-1.0586163436462626e-14,-6.7842977173028453e-14,-8.3470754690446758e-14,0.0022550522621686735,
5.255999999999997,-1.3744064022614066,-0.50645350328429639,0.32107467362487341,-0.48149784379516763,0.33698751468196642,12.134540585030116,
5.255999999999997,-0.47497335351591707,-0.38754363168108147,0.18407289837578741,-0.49271134814627099,0.58506190336025354,0.10130673856859841,
5.255999999999997,-1.4661766646762788,-0.46550108331044415,0.68250682572925259,-0.2539192383062579,0.93072615478787324,0.54985404967990248,
5.255999999999997,-2.0682172482651008e-14,-2.1496617822493169e-14,-1.0586163436462626e-14,-6.7842977173028453e-14,-8.3470754690446758e-14,0.0022550522621686735,
5.256499999999996,-1.3738914141557501,-0.50638465722427783,0.32095872396632047,-0.48163529181895859,0.33702778681320011,12.162979585682262,
5.256499999999996,-0.47481980987187078,-0.38746445584486161,0.18397579925885346,-0.49273842520269978,0.58490491342757267,0.10131930738059579,
5.256499999999996,-1.4663926058437347,-0.46547605616994858,0.68257064696474945,-0.2538870256867739,0.93074514296590716,0.54971784590008899,
5.256499999999996,-2.0682172482651008e-14,-2.1496617822493169e-14,-1.0586163436462626e-14,-6.7842977173028453e-14,-8.3470754690446758e-14,0.0022550522621686735,
5.256999999999996,-1.3733656567624479,-0.50631395962621151,0.32083969537388901,-0.48177397603778715,0.33706560863666946,12.190943513446896,
5.256999999999996,-0.47466630301144486,-0.38738526523462924,0.18387873169251825,-0.49276545598225602,0.5847478931064144,0.10133188171297607,
5.256999999999996,-1.4666084849946897,-0.46545103250263659,0.68263443361775089,-0.2538548297257015,0.93076411808055903,0.54958259611228955,
5.256999999999996,-2.0682172482651008e-14,-2.1496617822493169e-14,-1.0586163436462626e-14,-6.7842977173028453e-14,-8.3470754690446758e-14,0.0022550522621686735,
5.257499999999996,-1.3728301310977935,-0.5062415529804315,0.32071783115019281,-0.48191378790090289,0.33710101895012484,12.218448363818672,
5.257499999999996,-0.47451283285033458,-0.38730605982821648,0.1837816956316756,-0.49279244047328463,0.58459084233982006,0.10134445406074236,
5.257499999999996,-1.4668243021911191,-0.46542601230782787,0.68269818572522178,-0.25382265040409752,0.93078308014835365,0.16403848823244049,
5.257499999999996,1.4668243021914695,0.46542601230779934,0.68269818572514185,0.25382265040400087,0.93078308014810218,0.0057877863700495722,
5.257499999999996,-2.0682172482651008e-14,-2.1496617822493169e-14,-1.0586163436462626e-14,-6.7842977173028453e-14,-8.3470754690446758e-14,0.0022550522621686735,
5.257999999999996,-1.3722857602511036,-0.50616756907539051,0.32059335638297304,-0.48205462706971663,0.33713405655253303,12.245509495048251,
5.257999999999996,-0.47435939930430204,-0.38722683960341797,0.18368469103126966,-0.49281937866404169,0.58443376107078648,0.10135703883421571,
5.257999999999996,-1.4670400575035378,-0.46540099558616804,0.68276190332863584,-0.25379048770244739,0.93080202918708665,0.16391941582125677,
5.257999999999996,1.4670400574986464,0.46540099558653863,0.68276190332519782,0.25379048770436052,0.93080202918600841,0.0057877953842096746,
5.257999999999996,0.47435939930782572,0.38722683960783311,0.18368469103215129,0.49281937866764342,0.58443376107919409,0.0057713998334252342,
5.257999999999996,-2.0682172482651008e-14,-2.1496617822493169e-14,-1.0586163436462626e-14,-6.7842977173028453e-14,-8.3470754690446758e-14,0.0022550522621686735,
5.258499999999995,-1.3717333956777682,-0.50609212984439966,0.3204664793673786,-0.48219640078502435,0.33716476005377788,12.272141612108493,
5.258499999999995,1.4672557509795585,0.46537598233867977,0.68282558645420843,0.25375834160832517,0.93082096520967661,0.0057877783628885009,
5.258499999999995,-0.47420600229350923,-0.38714760454326386,0.18358771784742017,-0.49284627054741803,0.5842766492523066,0.00580935762194606,
5.258499999999995,0.474206002292341,0.38714760454215097,0.18358771784698893,0.49284627054596852,0.58427664925071832,0.0057713992106911069,
5.258499999999995,-1.4672557509795037,-0.46537598233867838,0.68282558645416169,-0.25375834160833965,0.93082096520966129,0.0061199634824999861,
5.258499999999995,-2.0682172482651008e-14,-2.1496617822493169e-14,-1.0586163436462626e-14,-6.7842977173028453e-14,-8.3470754690446758e-14,0.0022550522621686735,
5.258999999999995,-1.3711738230571675,-0.50601534815488924,0.32033739293422098,-0.48233902327469153,0.33719316771386487,12.298358760919392,
5.258999999999995,1.4674713826973484,0.46535097256447899,0.68288923514875521,0.253726212098008,0.93083988823505626,0.0057877761019508788,
5.258999999999995,-0.47405264172418493,-0.38706835461391953,0.18349077603256017,-0.4928731161006436,0.58411950680583946,0.0058093565941460847,
5.258999999999995,-1.4674713827180077,-0.46535097256529184,0.6828892351585889,-0.25372621209256496,0.93083988824041553,0.0058608763096636594,
5.258999999999995,0.47405264172407902,0.38706835461387284,0.18349077603249905,0.49287311610063544,0.58411950680572411,0.005771398394721983,
5.258999999999995,-2.0682172482651008e-14,-2.1496617822493169e-14,-1.0586163436462626e-14,-6.7842977173028453e-14,-8.3470754690446758e-14,0.0022550522621686735,
5.259499999999995,-1.3706077677247859,-0.5059373285413149,0.32020627568556964,-0.48248241520156032,0.33721931730837967,12.324174330736307,
5.259499999999995,1.4676869527155547,0.46532596626418415,0.68295284944568102,0.25369409915539715,0.9308587982781964,0.0057877948725827055,
5.259499999999995,-0.47389931751867215,-0.38698908980045282,0.18339386554360468,-0.49289991531934202,0.58396233368711159,0.0058093558045657218,
5.259499999999995,-1.4676869527155607,-0.46532596626418304,0.68295284944568069,-0.25369409915539415,0.93085879827819551,0.0058608945332707637,
5.259499999999995,0.47389931751867675,0.38698908980044933,0.18339386554360909,0.49289991531933469,0.58396233368711192,0.0057713979349451648,
5.259499999999995,-2.0682172482651008e-14,-2.1496617822493169e-14,-1.0586163436462626e-14,-6.7842977173028453e-14,-8.3470754690446758e-14,0.0022550522621686735,
5.2599999999999945,-1.3700358996940061,-0.50585816788372429,0.3200732931403743,-0.48262650315068312,0.33724324601728339,12.349601063082341,
5.2599999999999945,1.46790246109744,0.46530096343803223,0.68301642938167473,0.25366200276255096,0.9308776953550606,0.0057878196657706023,
5.2599999999999945,-0.47374602959218898,-0.38690981007955572,0.18329698633545852,-0.4929266681899821,0.5838051298377761,0.0058093550524051891,
5.2599999999999945,-1.4679024610975067,-0.46530096343803024,0.68301642938171514,-0.25366200276252882,0.93087769535507681,0.0058609071882670264,
5.2599999999999945,0.47374602959224033,0.38690981007957398,0.18329698633548744,0.49292666818997716,0.58380512983783717,0.005771397369943052,
5.2599999999999945,-2.0682172482651008e-14,-2.1496617822493169e-14,-1.0586163436462626e-14,-6.7842977173028453e-14,-8.3470754690446758e-14,0.0022550522621686735,
5.260499999999994,-1.3694588382867645,-0.50577795603436904,0.31993859879399789,-0.48277121915433779,0.33726499033411683,12.374651065712174,
5.260499999999994,1.4681179079062001,0.4652759640862747,0.68307997499336759,0.25362992290156988,0.9308965794815971,0.0057878378731934365,
5.260499999999994,-0.47359277786071585,-0.38683051542880836,0.18320013836322271,-0.4929533747004084,0.58364789520045912,0.0058093540729801836,
5.260499999999994,-1.4681179079063056,-0.46527596408627303,0.6830799749934392,-0.25362992290153702,0.93089657948162285,0.0058608969588684967,
5.260499999999994,0.47359277786075404,0.38683051542882768,0.18320013836324367,0.49295337470041795,0.58364789520049321,0.0057713967548959442,
5.260499999999994,-2.0682172482651008e-14,-2.1496617822493169e-14,-1.0586163436462626e-14,-6.7842977173028453e-14,-8.3470754690446758e-14,0.0022550522621686735,
